WMBW_Schaefer400
…
working_df_copy2 <-data.frame(working_df)
for (col in (ncol(schaefer400_cope11)+1):ncol(working_df)){
  working_df_copy2[,col] <- ifelse((working_df_copy2[,col] < lower_threshold[col-401]) | (working_df_copy2[,col] > upper_threshold[col-401]), 1, 0)
}

outlier_index_behavioral <- 
  working_df_copy2 %>% 
  select(Subject, WM_Task_2bk_Acc, ListSort_AgeAdj, PMAT24_A_CR, PicVocab_AgeAdj, ReadEng_AgeAdj) %>%
  pivot_longer(., WM_Task_2bk_Acc: ReadEng_AgeAdj, names_to = "parcel_name",  values_to = "value") %>%
  filter(value == 1) %>%
  count(Subject)

outlier_index_behavioral

## # A tibble: 52 x 2
##    Subject     n
##      <int> <int>
##  1  100610     1
##  2  101006     1
##  3  103515     1
##  4  108222     1
##  5  111009     1
##  6  111514     1
##  7  114924     1
##  8  115825     1
##  9  116524     1
## 10  119732     1
## #  with 42 more rows
…
